<--- FIXED --->
[ROOT] -------------------------------------------------------------------------------------
ERROR 0: ./src/sys/tests/linter/testDisabled.c:6:53
'2' of type 'int'
  4: {
  5:   /* incorrect */
> 6:   PetscValidHeaderSpecific(r, PETSC_RANDOM_CLASSID, 2);
                                                         ^
  7: 
  8:   /* correct by being disabled */

Argument number doesn't match for 'r'. Expected '1', found '2' [-fmatching-arg-num]

./src/sys/tests/linter/testDisabled.c:3:29 Note: 'r' is traceable to argument #1 'r' in enclosing function here:
  1: #include <petsc/private/petscimpl.h>
  2: 
> 3: PetscErrorCode testDisabled(PetscRandom r)
                                 ^^^^^^^^^^^^^
  4: {
  5:   /* incorrect */
[ROOT] -------------------------------------------------------------------------------------
<--- LEFT --->
